<mxfile host="app.diagrams.net" modified="2022-10-12T16:20:13.920Z" agent="5.0 (Windows NT 10.0; Win64; x64) AppleWebKit/537.36 (KHTML, like Gecko) Chrome/106.0.0.0 Safari/537.36" etag="hIuiNzNOzxGAC7bkDu0x" version="20.4.0" type="gitlab">
  <diagram name="Page-1" id="03018318-947c-dd8e-b7a3-06fadd420f32">
    <mxGraphModel dx="2013" dy="996" grid="1" gridSize="10" guides="1" tooltips="1" connect="1" arrows="1" fold="1" page="1" pageScale="1" pageWidth="1100" pageHeight="850" background="none" math="0" shadow="0">
      <root>
        <mxCell id="0" />
        <mxCell id="1" parent="0" />
        <mxCell id="677b7b8949515195-1" value="" style="whiteSpace=wrap;html=1;rounded=0;shadow=0;labelBackgroundColor=none;strokeColor=#000000;strokeWidth=1;fillColor=none;fontFamily=Verdana;fontSize=12;fontColor=#000000;align=center;comic=1;" parent="1" vertex="1">
          <mxGeometry x="20" y="20" width="1060" height="670" as="geometry" />
        </mxCell>
        <mxCell id="677b7b8949515195-2" value="" style="whiteSpace=wrap;html=1;rounded=0;shadow=0;labelBackgroundColor=none;strokeWidth=1;fontFamily=Verdana;fontSize=28;align=center;comic=1;" parent="1" vertex="1">
          <mxGeometry x="40" y="60" width="190" height="50" as="geometry" />
        </mxCell>
        <mxCell id="677b7b8949515195-9" value="" style="line;strokeWidth=1;html=1;rounded=0;shadow=0;labelBackgroundColor=none;fillColor=none;fontFamily=Verdana;fontSize=14;fontColor=#000000;align=center;comic=1;" parent="1" vertex="1">
          <mxGeometry x="20" y="140" width="1060" height="10" as="geometry" />
        </mxCell>
        <mxCell id="NoWhaPTIboJ853d1nFY6-4" value="&amp;nbsp;Login" style="whiteSpace=wrap;html=1;rounded=0;shadow=0;labelBackgroundColor=none;strokeWidth=1;fontFamily=Verdana;fontSize=28;align=center;comic=1;" parent="1" vertex="1">
          <mxGeometry x="700" y="60" width="170" height="60" as="geometry" />
        </mxCell>
        <mxCell id="NoWhaPTIboJ853d1nFY6-5" value="SignUp" style="whiteSpace=wrap;html=1;rounded=0;shadow=0;labelBackgroundColor=none;strokeWidth=1;fontFamily=Verdana;fontSize=28;align=center;comic=1;" parent="1" vertex="1">
          <mxGeometry x="880" y="60" width="160" height="60" as="geometry" />
        </mxCell>
        <mxCell id="NoWhaPTIboJ853d1nFY6-6" value="Browse Books" style="whiteSpace=wrap;html=1;rounded=0;shadow=0;labelBackgroundColor=none;strokeWidth=1;fontFamily=Verdana;fontSize=28;align=center;comic=1;" parent="1" vertex="1">
          <mxGeometry x="490" y="60" width="200" height="60" as="geometry" />
        </mxCell>
        <mxCell id="NoWhaPTIboJ853d1nFY6-10" value="" style="whiteSpace=wrap;html=1;rounded=0;shadow=0;labelBackgroundColor=none;strokeColor=#000000;strokeWidth=1;fillColor=none;fontFamily=Verdana;fontSize=12;fontColor=#000000;align=center;comic=1;" parent="1" vertex="1">
          <mxGeometry x="20" y="880" width="1030" height="800" as="geometry" />
        </mxCell>
        <mxCell id="NoWhaPTIboJ853d1nFY6-12" value="" style="line;strokeWidth=1;html=1;rounded=0;shadow=0;labelBackgroundColor=none;fillColor=none;fontFamily=Verdana;fontSize=14;fontColor=#000000;align=center;comic=1;" parent="1" vertex="1">
          <mxGeometry x="25" y="970" width="1025" height="10" as="geometry" />
        </mxCell>
        <mxCell id="NoWhaPTIboJ853d1nFY6-13" value="&lt;font style=&quot;font-size: 24px;&quot;&gt;&lt;b&gt;Login&lt;/b&gt;&lt;/font&gt;" style="whiteSpace=wrap;html=1;rounded=0;shadow=0;labelBackgroundColor=none;strokeWidth=1;fontFamily=Verdana;fontSize=28;align=center;comic=1;fillColor=#CCCCCC;" parent="1" vertex="1">
          <mxGeometry x="270" y="1010" width="450" height="60" as="geometry" />
        </mxCell>
        <mxCell id="NoWhaPTIboJ853d1nFY6-14" value="" style="whiteSpace=wrap;html=1;rounded=0;shadow=0;labelBackgroundColor=none;strokeWidth=1;fontFamily=Verdana;fontSize=28;align=center;comic=1;" parent="1" vertex="1">
          <mxGeometry x="270" y="1160" width="450" height="60" as="geometry" />
        </mxCell>
        <mxCell id="NoWhaPTIboJ853d1nFY6-19" value="" style="whiteSpace=wrap;html=1;rounded=0;shadow=0;labelBackgroundColor=none;strokeColor=#000000;strokeWidth=1;fillColor=none;fontFamily=Verdana;fontSize=12;fontColor=#000000;align=center;comic=1;" parent="1" vertex="1">
          <mxGeometry x="210" y="1000" width="570" height="570" as="geometry" />
        </mxCell>
        <mxCell id="NoWhaPTIboJ853d1nFY6-21" value="&lt;font style=&quot;font-size: 24px;&quot;&gt;Password&lt;/font&gt;" style="text;html=1;strokeColor=none;fillColor=none;align=center;verticalAlign=middle;whiteSpace=wrap;rounded=0;fontSize=18;" parent="1" vertex="1">
          <mxGeometry x="180" y="1240" width="380" height="45" as="geometry" />
        </mxCell>
        <mxCell id="NoWhaPTIboJ853d1nFY6-22" value="&lt;font style=&quot;font-size: 24px;&quot;&gt;Email Address&lt;/font&gt;" style="text;html=1;strokeColor=none;fillColor=none;align=center;verticalAlign=middle;whiteSpace=wrap;rounded=0;fontSize=18;" parent="1" vertex="1">
          <mxGeometry x="200" y="1110" width="390" height="40" as="geometry" />
        </mxCell>
        <mxCell id="NoWhaPTIboJ853d1nFY6-23" value="" style="whiteSpace=wrap;html=1;rounded=0;shadow=0;labelBackgroundColor=none;strokeWidth=1;fontFamily=Verdana;fontSize=28;align=center;comic=1;" parent="1" vertex="1">
          <mxGeometry x="270" y="1290" width="450" height="60" as="geometry" />
        </mxCell>
        <mxCell id="NoWhaPTIboJ853d1nFY6-24" value="&lt;font style=&quot;font-size: 24px;&quot;&gt;&lt;b&gt;Login&lt;/b&gt;&lt;/font&gt;" style="rounded=1;whiteSpace=wrap;html=1;fontSize=24;fillColor=#CCCCCC;" parent="1" vertex="1">
          <mxGeometry x="380" y="1380" width="240" height="60" as="geometry" />
        </mxCell>
        <mxCell id="NoWhaPTIboJ853d1nFY6-25" value="" style="whiteSpace=wrap;html=1;rounded=0;shadow=0;labelBackgroundColor=none;strokeColor=#000000;strokeWidth=1;fillColor=none;fontFamily=Verdana;fontSize=12;fontColor=#000000;align=center;comic=1;" parent="1" vertex="1">
          <mxGeometry x="20" y="1740" width="1050" height="790" as="geometry" />
        </mxCell>
        <mxCell id="NoWhaPTIboJ853d1nFY6-29" value="" style="whiteSpace=wrap;html=1;rounded=0;shadow=0;labelBackgroundColor=none;strokeWidth=1;fontFamily=Verdana;fontSize=28;align=center;comic=1;" parent="1" vertex="1">
          <mxGeometry x="40" y="1750" width="190" height="50" as="geometry" />
        </mxCell>
        <mxCell id="NoWhaPTIboJ853d1nFY6-30" value="" style="line;strokeWidth=1;html=1;rounded=0;shadow=0;labelBackgroundColor=none;fillColor=none;fontFamily=Verdana;fontSize=14;fontColor=#000000;align=center;comic=1;" parent="1" vertex="1">
          <mxGeometry x="20" y="1810" width="1050" height="10" as="geometry" />
        </mxCell>
        <mxCell id="NoWhaPTIboJ853d1nFY6-31" value="&lt;font style=&quot;font-size: 24px;&quot;&gt;&lt;b&gt;Sign Up&lt;/b&gt;&lt;/font&gt;" style="whiteSpace=wrap;html=1;rounded=0;shadow=0;labelBackgroundColor=none;strokeWidth=1;fontFamily=Verdana;fontSize=28;align=center;comic=1;fillColor=#CCCCCC;" parent="1" vertex="1">
          <mxGeometry x="320" y="1850" width="400" height="50" as="geometry" />
        </mxCell>
        <mxCell id="NoWhaPTIboJ853d1nFY6-32" value="&lt;b&gt;Sign Up&lt;/b&gt;" style="rounded=1;whiteSpace=wrap;html=1;fontSize=24;fillColor=#CCCCCC;" parent="1" vertex="1">
          <mxGeometry x="350" y="2430" width="230" height="60" as="geometry" />
        </mxCell>
        <mxCell id="NoWhaPTIboJ853d1nFY6-33" value="" style="whiteSpace=wrap;html=1;rounded=0;shadow=0;labelBackgroundColor=none;strokeWidth=1;fontFamily=Verdana;fontSize=28;align=center;comic=1;" parent="1" vertex="1">
          <mxGeometry x="320" y="1950" width="390" height="30" as="geometry" />
        </mxCell>
        <mxCell id="NoWhaPTIboJ853d1nFY6-40" value="First Name" style="text;html=1;strokeColor=none;fillColor=none;align=center;verticalAlign=middle;whiteSpace=wrap;rounded=0;fontSize=24;" parent="1" vertex="1">
          <mxGeometry x="290" y="1920" width="180" height="30" as="geometry" />
        </mxCell>
        <mxCell id="NoWhaPTIboJ853d1nFY6-41" value="First Name" style="text;html=1;strokeColor=none;fillColor=none;align=center;verticalAlign=middle;whiteSpace=wrap;rounded=0;fontSize=24;" parent="1" vertex="1">
          <mxGeometry x="290" y="1920" width="180" height="30" as="geometry" />
        </mxCell>
        <mxCell id="NoWhaPTIboJ853d1nFY6-42" value="Last Name" style="text;html=1;strokeColor=none;fillColor=none;align=center;verticalAlign=middle;whiteSpace=wrap;rounded=0;fontSize=24;" parent="1" vertex="1">
          <mxGeometry x="290" y="2000" width="180" height="30" as="geometry" />
        </mxCell>
        <mxCell id="NoWhaPTIboJ853d1nFY6-43" value="Username" style="text;html=1;strokeColor=none;fillColor=none;align=center;verticalAlign=middle;whiteSpace=wrap;rounded=0;fontSize=24;" parent="1" vertex="1">
          <mxGeometry x="230" y="2090" width="280" height="30" as="geometry" />
        </mxCell>
        <mxCell id="NoWhaPTIboJ853d1nFY6-44" value="Email" style="text;html=1;strokeColor=none;fillColor=none;align=center;verticalAlign=middle;whiteSpace=wrap;rounded=0;fontSize=24;" parent="1" vertex="1">
          <mxGeometry x="260" y="2170" width="180" height="30" as="geometry" />
        </mxCell>
        <mxCell id="NoWhaPTIboJ853d1nFY6-45" value="Password" style="text;html=1;strokeColor=none;fillColor=none;align=center;verticalAlign=middle;whiteSpace=wrap;rounded=0;fontSize=24;" parent="1" vertex="1">
          <mxGeometry x="280" y="2250" width="180" height="30" as="geometry" />
        </mxCell>
        <mxCell id="NoWhaPTIboJ853d1nFY6-46" value="Gender" style="text;html=1;strokeColor=none;fillColor=none;align=center;verticalAlign=middle;whiteSpace=wrap;rounded=0;fontSize=24;" parent="1" vertex="1">
          <mxGeometry x="270" y="2330" width="180" height="30" as="geometry" />
        </mxCell>
        <mxCell id="NoWhaPTIboJ853d1nFY6-49" value="" style="whiteSpace=wrap;html=1;rounded=0;shadow=0;labelBackgroundColor=none;strokeColor=#000000;strokeWidth=1;fillColor=none;fontFamily=Verdana;fontSize=12;fontColor=#000000;align=center;comic=1;" parent="1" vertex="1">
          <mxGeometry x="275" y="1830" width="480" height="670" as="geometry" />
        </mxCell>
        <mxCell id="n1hG2PgQdgynopQjypLQ-1" value="" style="endArrow=none;html=1;rounded=0;entryX=0;entryY=1;entryDx=0;entryDy=0;" parent="1" target="677b7b8949515195-2" edge="1">
          <mxGeometry width="50" height="50" relative="1" as="geometry">
            <mxPoint x="230" y="60" as="sourcePoint" />
            <mxPoint x="800" y="290" as="targetPoint" />
          </mxGeometry>
        </mxCell>
        <mxCell id="n1hG2PgQdgynopQjypLQ-2" value="" style="endArrow=none;html=1;rounded=0;entryX=1;entryY=1;entryDx=0;entryDy=0;exitX=0;exitY=0;exitDx=0;exitDy=0;" parent="1" source="677b7b8949515195-2" target="677b7b8949515195-2" edge="1">
          <mxGeometry width="50" height="50" relative="1" as="geometry">
            <mxPoint x="240" y="70" as="sourcePoint" />
            <mxPoint x="50" y="120" as="targetPoint" />
          </mxGeometry>
        </mxCell>
        <mxCell id="n1hG2PgQdgynopQjypLQ-3" value="" style="whiteSpace=wrap;html=1;rounded=0;shadow=0;labelBackgroundColor=none;strokeWidth=1;fontFamily=Verdana;fontSize=28;align=center;comic=1;" parent="1" vertex="1">
          <mxGeometry x="50" y="170" width="990" height="490" as="geometry" />
        </mxCell>
        <mxCell id="n1hG2PgQdgynopQjypLQ-4" value="" style="endArrow=none;html=1;rounded=0;entryX=1;entryY=0;entryDx=0;entryDy=0;exitX=0;exitY=1;exitDx=0;exitDy=0;" parent="1" source="n1hG2PgQdgynopQjypLQ-3" target="n1hG2PgQdgynopQjypLQ-3" edge="1">
          <mxGeometry width="50" height="50" relative="1" as="geometry">
            <mxPoint x="750" y="500" as="sourcePoint" />
            <mxPoint x="800" y="450" as="targetPoint" />
          </mxGeometry>
        </mxCell>
        <mxCell id="n1hG2PgQdgynopQjypLQ-6" value="" style="endArrow=none;html=1;rounded=0;entryX=1;entryY=1;entryDx=0;entryDy=0;exitX=0;exitY=0;exitDx=0;exitDy=0;" parent="1" source="n1hG2PgQdgynopQjypLQ-3" target="n1hG2PgQdgynopQjypLQ-3" edge="1">
          <mxGeometry width="50" height="50" relative="1" as="geometry">
            <mxPoint x="590" y="530" as="sourcePoint" />
            <mxPoint x="1060" y="200" as="targetPoint" />
          </mxGeometry>
        </mxCell>
        <mxCell id="n1hG2PgQdgynopQjypLQ-9" value="" style="whiteSpace=wrap;html=1;rounded=0;shadow=0;labelBackgroundColor=none;strokeWidth=1;fontFamily=Verdana;fontSize=28;align=center;comic=1;" parent="1" vertex="1">
          <mxGeometry x="40" y="900" width="190" height="50" as="geometry" />
        </mxCell>
        <mxCell id="n1hG2PgQdgynopQjypLQ-10" value="" style="endArrow=none;html=1;rounded=0;entryX=0;entryY=0;entryDx=0;entryDy=0;exitX=1;exitY=1;exitDx=0;exitDy=0;" parent="1" source="n1hG2PgQdgynopQjypLQ-9" target="n1hG2PgQdgynopQjypLQ-9" edge="1">
          <mxGeometry width="50" height="50" relative="1" as="geometry">
            <mxPoint x="660" y="700" as="sourcePoint" />
            <mxPoint x="710" y="650" as="targetPoint" />
          </mxGeometry>
        </mxCell>
        <mxCell id="n1hG2PgQdgynopQjypLQ-11" value="" style="endArrow=none;html=1;rounded=0;entryX=0;entryY=1;entryDx=0;entryDy=0;exitX=1;exitY=0;exitDx=0;exitDy=0;" parent="1" source="n1hG2PgQdgynopQjypLQ-9" target="n1hG2PgQdgynopQjypLQ-9" edge="1">
          <mxGeometry width="50" height="50" relative="1" as="geometry">
            <mxPoint x="240" y="940" as="sourcePoint" />
            <mxPoint x="50" y="890" as="targetPoint" />
          </mxGeometry>
        </mxCell>
        <mxCell id="n1hG2PgQdgynopQjypLQ-14" value="SignUp" style="whiteSpace=wrap;html=1;rounded=0;shadow=0;labelBackgroundColor=none;strokeWidth=1;fontFamily=Verdana;fontSize=28;align=center;comic=1;" parent="1" vertex="1">
          <mxGeometry x="850" y="890" width="170" height="60" as="geometry" />
        </mxCell>
        <mxCell id="n1hG2PgQdgynopQjypLQ-15" value="Browse Books" style="whiteSpace=wrap;html=1;rounded=0;shadow=0;labelBackgroundColor=none;strokeWidth=1;fontFamily=Verdana;fontSize=28;align=center;comic=1;" parent="1" vertex="1">
          <mxGeometry x="600" y="890" width="240" height="60" as="geometry" />
        </mxCell>
        <mxCell id="n1hG2PgQdgynopQjypLQ-16" value="" style="endArrow=none;html=1;rounded=0;entryX=0;entryY=0;entryDx=0;entryDy=0;exitX=1;exitY=1;exitDx=0;exitDy=0;" parent="1" source="NoWhaPTIboJ853d1nFY6-29" target="NoWhaPTIboJ853d1nFY6-29" edge="1">
          <mxGeometry width="50" height="50" relative="1" as="geometry">
            <mxPoint x="680" y="1620" as="sourcePoint" />
            <mxPoint x="730" y="1570" as="targetPoint" />
          </mxGeometry>
        </mxCell>
        <mxCell id="n1hG2PgQdgynopQjypLQ-18" value="" style="endArrow=none;html=1;rounded=0;entryX=0;entryY=1;entryDx=0;entryDy=0;exitX=1;exitY=0;exitDx=0;exitDy=0;" parent="1" source="NoWhaPTIboJ853d1nFY6-29" target="NoWhaPTIboJ853d1nFY6-29" edge="1">
          <mxGeometry width="50" height="50" relative="1" as="geometry">
            <mxPoint x="230" y="1790" as="sourcePoint" />
            <mxPoint x="40" y="1740" as="targetPoint" />
          </mxGeometry>
        </mxCell>
        <mxCell id="e8KVqrd8sVqW1RaGEE_O-1" value="&amp;nbsp;Login" style="whiteSpace=wrap;html=1;rounded=0;shadow=0;labelBackgroundColor=none;strokeWidth=1;fontFamily=Verdana;fontSize=28;align=center;comic=1;" parent="1" vertex="1">
          <mxGeometry x="872.5" y="1750" width="175" height="50" as="geometry" />
        </mxCell>
        <mxCell id="e8KVqrd8sVqW1RaGEE_O-2" value="Browse Books" style="whiteSpace=wrap;html=1;rounded=0;shadow=0;labelBackgroundColor=none;strokeWidth=1;fontFamily=Verdana;fontSize=28;align=center;comic=1;" parent="1" vertex="1">
          <mxGeometry x="630" y="1750" width="220" height="50" as="geometry" />
        </mxCell>
        <mxCell id="e8KVqrd8sVqW1RaGEE_O-4" value="&lt;font style=&quot;font-size: 24px;&quot;&gt;Don&#39;t have account?&lt;/font&gt;" style="text;html=1;strokeColor=none;fillColor=none;align=center;verticalAlign=middle;whiteSpace=wrap;rounded=0;" parent="1" vertex="1">
          <mxGeometry x="230" y="1470" width="300" height="30" as="geometry" />
        </mxCell>
        <mxCell id="e8KVqrd8sVqW1RaGEE_O-5" value="&lt;b&gt;Sign Up&lt;/b&gt;" style="text;html=1;strokeColor=none;fillColor=none;align=center;verticalAlign=middle;whiteSpace=wrap;rounded=0;fontSize=24;" parent="1" vertex="1">
          <mxGeometry x="495" y="1470" width="110" height="30" as="geometry" />
        </mxCell>
        <mxCell id="e8KVqrd8sVqW1RaGEE_O-6" value="&lt;font style=&quot;font-size: 24px;&quot;&gt;Forgot Password&lt;/font&gt;" style="text;html=1;strokeColor=none;fillColor=none;align=center;verticalAlign=middle;whiteSpace=wrap;rounded=0;" parent="1" vertex="1">
          <mxGeometry x="270" y="1510" width="300" height="30" as="geometry" />
        </mxCell>
        <mxCell id="SIfBlOmsbd3RaQ48bkyU-2" value="" style="whiteSpace=wrap;html=1;rounded=0;shadow=0;labelBackgroundColor=none;strokeWidth=1;fontFamily=Verdana;fontSize=28;align=center;comic=1;" vertex="1" parent="1">
          <mxGeometry x="320" y="2040" width="390" height="30" as="geometry" />
        </mxCell>
        <mxCell id="SIfBlOmsbd3RaQ48bkyU-3" value="" style="whiteSpace=wrap;html=1;rounded=0;shadow=0;labelBackgroundColor=none;strokeWidth=1;fontFamily=Verdana;fontSize=28;align=center;comic=1;" vertex="1" parent="1">
          <mxGeometry x="320" y="2125" width="390" height="30" as="geometry" />
        </mxCell>
        <mxCell id="SIfBlOmsbd3RaQ48bkyU-4" value="" style="whiteSpace=wrap;html=1;rounded=0;shadow=0;labelBackgroundColor=none;strokeWidth=1;fontFamily=Verdana;fontSize=28;align=center;comic=1;" vertex="1" parent="1">
          <mxGeometry x="320" y="2200" width="390" height="30" as="geometry" />
        </mxCell>
        <mxCell id="SIfBlOmsbd3RaQ48bkyU-5" value="" style="whiteSpace=wrap;html=1;rounded=0;shadow=0;labelBackgroundColor=none;strokeWidth=1;fontFamily=Verdana;fontSize=28;align=center;comic=1;" vertex="1" parent="1">
          <mxGeometry x="320" y="2280" width="390" height="30" as="geometry" />
        </mxCell>
        <mxCell id="SIfBlOmsbd3RaQ48bkyU-6" value="" style="whiteSpace=wrap;html=1;rounded=0;shadow=0;labelBackgroundColor=none;strokeWidth=1;fontFamily=Verdana;fontSize=28;align=center;comic=1;" vertex="1" parent="1">
          <mxGeometry x="320" y="2360" width="390" height="30" as="geometry" />
        </mxCell>
      </root>
    </mxGraphModel>
  </diagram>
</mxfile>
